{
    "name": "ConfectionaryConsortium",
    "dockerComposeFile": ["docker-compose-unicsrt.yml"],
    "service": "development",
    "workspaceFolder": "/workspaces/${localWorkspaceFolderBasename}",
    "features":{
          "ghcr.io/devcontainers/features/docker-outside-of-docker:1": {},
    }
  }
  